STAT-462 Lab Book - Tutorial 5: Loading Data
…
# This will select the 2nd row and ALL the columns 
frost[2,]

# A tibble: 1 × 8
  Station State Type_Fake Avg_DOY_SpringFrost Latitude Longitude Eleva…¹ Dist_…²
  <chr>   <chr> <chr>                   <dbl>    <dbl>     <dbl>   <dbl>   <dbl>
1 Union   AL    City                     82.3     32.0     -85.8     440    122.
# … with abbreviated variable names ¹​Elevation, ²​Dist_to_Coast

# This will select the 3rd column and ALL the rows
frost[,3]

# A tibble: 76 × 1
   Type_Fake                    
   <chr>                        
 1 City                         
 2 City                         
 3 Airport                      
 4 City                         
 5 City                         
 6 City                         
 7 City                         
 8 City                         
 9 Agricultural_Research_Station
10 Agricultural_Research_Station
# … with 66 more rows
…
In addition to comparison operators, filtering may also utilize logical operators that make multiple selections. There are three basic logical operators: & (and), | (or), and ! (not). We can keep Stations with an Elevation greater than 300 and State in Alabama &.

filter(frost, Elevation > 300 & State == "AL")

Use | to keep Stations with a Type_Fake of “Airport” or a last spring frost date after April (~ day 90 of the year).

filter(frost, Type_Fake == "Airport" | Avg_DOY_SpringFrost > 90 )

The dplyr arrange command (tidyverse)

We use the arrange() function to sort a data frame by one or more variables. You might want to do this to get a sense of which cases have the highest or lowest values in your data set or sort counties by their name. For example, let’s sort in ascending order by elevation.

arrange(frost, Latitude)

# A tibble: 75 × 8
   Station     State Type_Fake           Avg_D…¹ Latit…² Longi…³ Eleva…⁴ Dist_…⁵
   <chr>       <chr> <chr>                 <dbl>   <dbl>   <dbl>   <dbl>   <dbl>
 1 Inverness   FL    City                   50.6    28.8   -82.3      40   20.5 
 2 Ocala       FL    City                   52.7    29.2   -82.1      75   41.6 
 3 Lake        FL    City                   60.6    30.2   -82.6     195   63.0 
 4 Tallahassee FL    Agricultural_Resea…    75.8    30.4   -84.4      55   23.2 
 5 Fernandina  FL    City                   46.9    30.7   -81.5      13    1.15
 6 De          FL    City                   71.3    30.7   -86.1     245   29.4 
 7 Quitman     GA    City                   65.5    30.8   -83.6     185   56.4 
 8 Brunswick   GA    Agricultural_Resea…    48.4    31.2   -81.5      13    7.18
 9 Waycross    GA    Agricultural_Resea…    75.9    31.2   -82.3     145   52.4 
10 Tifton      GA    City                   87.3    31.4   -83.5     380  101.  
# … with 65 more rows, and abbreviated variable names ¹​Avg_DOY_SpringFrost,
#   ²​Latitude, ³​Longitude, ⁴​Elevation, ⁵​Dist_to_Coast

By default, arrange() sorts in ascending order. We can sort by a variable in descending order by using the desc() function on the variable we want to sort by. For example, to sort the dataframe by Avg_DOY_SpringFrost in descending order we use

arrange(frost, desc(Avg_DOY_SpringFrost))

# A tibble: 75 × 8
   Station        State Type_Fake        Avg_D…¹ Latit…² Longi…³ Eleva…⁴ Dist_…⁵
   <chr>          <chr> <chr>              <dbl>   <dbl>   <dbl>   <dbl>   <dbl>
 1 Marshall       NC    Airport             118.    35.8   -82.7    2000   258. 
 2 Highlands      NC    Agricultural_Re…    118.    35.0   -83.2    3333   235. 
 3 Mt             NC    City                113.    36.5   -80.6    1041   216. 
 4 Louisburg      NC    City                113.    36.1   -78.3     260    88.5
 5 Rocky          VA    Airport             111.    37.0   -79.9    1315   180. 
 6 Henderson      NC    Agricultural_Re…    111.    36.3   -78.4     512    97.9
 7 Farmville      VA    Airport             111.    37.3   -78.4     450    97.1
 8 Statesville    NC    City                110.    35.8   -80.9     951   185. 
 9 Valley         AL    City                110.    34.6   -85.6    1020   295. 
10 Hendersonville NC    Agricultural_Re…    110.    35.3   -82.4    2160   227. 
# … with 65 more rows, and abbreviated variable names ¹​Avg_DOY_SpringFrost,
#   ²​Latitude, ³​Longitude, ⁴​Elevation, ⁵​Dist_to_Coast
…
