STAT-462 Lab Book - 1. Making teams
…
Data processing

Step 1. Coding the quiz

I could have probably put your raw data into a model, but to make life easier on myself, I decided to assign a tag to each question with a corresponding “score”. Some questions didn’t really fit in the end, so I tagged those “ignore” and I tried a load of combinations before ending up with the exact roles above.

You can see my codes here, attached to each question number & option.

# From the readxl package
Codes <- read_excel("Project1_PersonalityKey_Final.xlsx")

# This will print it nicely
Codes

# A tibble: 71 × 9
   Question       Code           AllGr…¹ Score Roles RoleS…² Style Style…³ Text 
   <chr>          <chr>          <chr>   <dbl> <chr>   <dbl> <chr>   <dbl> <chr>
 1 1_Location     Adventure      Ignore      0 Igno…       0 Igno…       0 Im e…
 2 1_Location     Arboretum      Ignore      0 Igno…       0 Igno…       0 I ca…
 3 1_Location     CampusFocus    Ignore      0 Igno…       0 Igno…       0 I do…
 4 1_Location     CarAccess      Ignore      0 Igno…       0 Igno…       0 I ha…
 5 1_Location     Hiking         Ignore      0 Igno…       0 Igno…       0 Love…
 6 1_Location     SkiAccess      Ignore      0 Igno…       0 Igno…       0 I ca…
 7 1_Location     StateCollegeK… Ignore      0 Igno…       0 Igno…       0 I kn…
 8 2_R_Competency Expert         Role_M…     2 Role…       2 Igno…       0 Love…
 9 2_R_Competency Intermediate   Role_M…     1 Role…       1 Igno…       0 Ive …
10 2_R_Competency StartingOut    Role_M…    -1 Role…      -2 Igno…       0 Ive …
# … with 61 more rows, and abbreviated variable names ¹​AllGroups, ²​RoleScore,
#   ³​StyleScore
…
